…
In this scatterplot, a relatively linear trend is observed between the life expectancies of the two countries, as shown by the line of best fit. The years of measurement range from dark blue (1952) to light blue (2007). Overall, both countries experienced similar increases in life expectancy.

The data were then pivoted back to the original gapminder layout using `pivot_longer()` (though the filtering and selection of countries/variables was not reversed).


```
## # A tibble: 36 x 3
##     year country lifeExp
##    <int> <chr>     <dbl>
##  1  1952 China      44  
##  2  1952 Mexico     50.8
##  3  1952 Rwanda     40  
##  4  1957 China      50.5
##  5  1957 Mexico     55.2
##  6  1957 Rwanda     41.5
##  7  1962 China      44.5
##  8  1962 Mexico     58.3
##  9  1962 Rwanda     43  
## 10  1967 China      58.4
## # ... with 26 more rows
```
…
The above dataset was then reversed to its original (truncated) form using `pivot_longer()`.


```
## # A tibble: 36 x 4
##     year country       lifeExp gdpPercap
##    <int> <chr>           <dbl>     <dbl>
##  1  1952 Canada           68.8    11367.
##  2  1952 Mexico           50.8     3478.
##  3  1952 United States    68.4    13990.
##  4  1957 Canada           70.0    12490.
##  5  1957 Mexico           55.2     4132.
##  6  1957 United States    69.5    14847.
##  7  1962 Canada           71.3    13462.
##  8  1962 Mexico           58.3     4582.
##  9  1962 United States    70.2    16173.
## 10  1967 Canada           72.1    16077.
## # ... with 26 more rows
```


# PART 3: Table Joins



This exercise used two datasets: `guest` and `email`. `guest` contains a variety of guest-specific accommodations for an upcoming wedding, whereas `email` contains guest names and an associated contact email.

### 3.1

`left_join()` was used to add the email associated with each name to the `guest` dataset. Before this was performed, an alternate form of `email` had to be generated, called `sep_email`, as the original dataset contained all members of each wedding party in the same cell. `separate_rows()` was thus used to give each person their own row in the alternate table.


```
## # A tibble: 30 x 8
##    party name  meal_wedding meal_brunch attendance_wedd~ attendance_brun~
##    <dbl> <chr> <chr>        <chr>       <chr>            <chr>           
##  1     1 Somm~ PENDING      PENDING     PENDING          PENDING         
##  2     1 Phil~ vegetarian   Menu C      CONFIRMED        CONFIRMED       
##  3     1 Blan~ chicken      Menu A      CONFIRMED        CONFIRMED       
##  4     1 Emaa~ PENDING      PENDING     PENDING          PENDING         
##  5     2 Blai~ chicken      Menu C      CONFIRMED        CONFIRMED       
##  6     2 Nige~ <NA>         <NA>        CANCELLED        CANCELLED       
##  7     3 Sine~ PENDING      PENDING     PENDING          PENDING         
##  8     4 Ayra~ vegetarian   Menu B      PENDING          PENDING         
##  9     5 Atla~ PENDING      PENDING     PENDING          PENDING         
## 10     5 Denz~ fish         Menu B      CONFIRMED        CONFIRMED       
## # ... with 20 more rows, and 2 more variables: attendance_golf <chr>,
## #   email <chr>
```
…
### 3.3

Good news - all three of the remaining people from the previous question can come to the wedding! They were added to the `guest` dataset using `full_join(sep_email)`, which also added each person's contact email to the table.


```
## Joining, by = "name"
```

```
## # A tibble: 33 x 8
##    party name  meal_wedding meal_brunch attendance_wedd~ attendance_brun~
##    <dbl> <chr> <chr>        <chr>       <chr>            <chr>           
##  1     1 Somm~ PENDING      PENDING     PENDING          PENDING         
##  2     1 Phil~ vegetarian   Menu C      CONFIRMED        CONFIRMED       
##  3     1 Blan~ chicken      Menu A      CONFIRMED        CONFIRMED       
##  4     1 Emaa~ PENDING      PENDING     PENDING          PENDING         
##  5     2 Blai~ chicken      Menu C      CONFIRMED        CONFIRMED       
##  6     2 Nige~ <NA>         <NA>        CANCELLED        CANCELLED       
##  7     3 Sine~ PENDING      PENDING     PENDING          PENDING         
##  8     4 Ayra~ vegetarian   Menu B      PENDING          PENDING         
##  9     5 Atla~ PENDING      PENDING     PENDING          PENDING         
## 10     5 Denz~ fish         Menu B      CONFIRMED        CONFIRMED       
## # ... with 23 more rows, and 2 more variables: attendance_golf <chr>,
## #   email <chr>
```
