…
gapminder_redExp
```

    ## # A tibble: 221 x 7
    ##    country    continent  year lifeExp      pop gdpPercap   delta
    ##    <fct>      <fct>     <int>   <dbl>    <int>     <dbl>   <dbl>
    ##  1 Albania    Europe     1992    71.6  3326498     2497.  -0.419
    ##  2 Algeria    Africa     1952    43.1  9279525     2449. -33.3  
    ##  3 Angola     Africa     1952    30.0  4232095     3521. -42.3  
    ##  4 Angola     Africa     1987    39.9  7874230     2430.  -0.036
    ##  5 Australia  Oceania    1952    69.1  8691212    10040.  -6.20 
    ##  6 Austria    Europe     1952    66.8  6927772     6137. -14.4  
    ##  7 Bahrain    Asia       1952    50.9   120447     9867. -28.9  
    ##  8 Bangladesh Asia       1952    37.5 46886859      684. -38.2  
    ##  9 Benin      Africa     1952    38.2  1738315     1063. -41.2  
    ## 10 Benin      Africa     2002    54.4  7026113     1373.  -0.371
    ## # ... with 211 more rows
…
# Filters gapminder to only show max GDP; removes the redundant 'max GDP' column
max_per_country <- gap_max_gdp %>% 
  filter(gdpPercap == max_gdp) %>% 
  subset(select = -max_gdp)

max_per_country
```

    ## # A tibble: 142 x 6
    ##    country     continent  year lifeExp       pop gdpPercap
    ##    <fct>       <fct>     <int>   <dbl>     <int>     <dbl>
    ##  1 Afghanistan Asia       1982    39.9  12881816      978.
    ##  2 Albania     Europe     2007    76.4   3600523     5937.
    ##  3 Algeria     Africa     2007    72.3  33333216     6223.
    ##  4 Angola      Africa     1967    36.0   5247469     5523.
    ##  5 Argentina   Americas   2007    75.3  40301927    12779.
    ##  6 Australia   Oceania    2007    81.2  20434176    34435.
    ##  7 Austria     Europe     2007    79.8   8199783    36126.
    ##  8 Bahrain     Asia       2007    75.6    708573    29796.
    ##  9 Bangladesh  Asia       2007    64.1 150448339     1391.
    ## 10 Belgium     Europe     2007    79.4  10392226    33693.
    ## # ... with 132 more rows
…
Though at first glance this code appears to select the data for
Afghanistan and Rwanda, but **half of the data is missing**. Every other
entry is omitted, in a way where both countries are never represented in
the same year. (ex. Rwanda 1952, Afghanistan 1957…)

Because of the inclusion of a list, the function will go along the
year-sorted data, taking turns selecting each country for each value of
year. The code can be fixed by using an ‘or’ statement:

``` r
filter(gapminder, country == "Rwanda" | country == "Afghanistan")
```

    ## # A tibble: 24 x 6
    ##    country     continent  year lifeExp      pop gdpPercap
    ##    <fct>       <fct>     <int>   <dbl>    <int>     <dbl>
    ##  1 Afghanistan Asia       1952    28.8  8425333      779.
    ##  2 Afghanistan Asia       1957    30.3  9240934      821.
    ##  3 Afghanistan Asia       1962    32.0 10267083      853.
    ##  4 Afghanistan Asia       1967    34.0 11537966      836.
    ##  5 Afghanistan Asia       1972    36.1 13079460      740.
    ##  6 Afghanistan Asia       1977    38.4 14880372      786.
    ##  7 Afghanistan Asia       1982    39.9 12881816      978.
    ##  8 Afghanistan Asia       1987    40.8 13867957      852.
    ##  9 Afghanistan Asia       1992    41.7 16317921      649.
    ## 10 Afghanistan Asia       1997    41.8 22227415      635.
    ## # ... with 14 more rows
…
