…
### Task Option 6: Find an Interesting Story!

For this question, I was interested in determining which countries experienced a significantly different rate of population growth over the course of the study, and the subsequent effects on the country's GDP.

First, the gapminder dataset was summarized by country to include the populations at the beginning (1952) and end (2007) of the study, and the subsequent change in population (`Pop Change = 2007-1957`). The latter was normalized to represent a % increase from 1957 (`% Growth = (Pop Change/1952)*100`).


```
## # A tibble: 142 x 5
##    country          `1952`   `2007` `Pop Change` `% Growth`
##    <fct>             <int>    <int>        <int>      <dbl>
##  1 Bulgaria        7274900  7322858        47958      0.659
##  2 Hungary         9504000  9956108       452108      4.76 
##  3 Czech Republic  9125183 10228744      1103561     12.1  
##  4 Croatia         3882229  4493312       611083     15.7  
##  5 Austria         6927772  8199783      1272011     18.4  
##  6 Belgium         8730405 10392226      1661821     19.0  
##  7 Germany        69145952 82400996     13255044     19.2  
##  8 United Kingdom 50430000 60776238     10346238     20.5  
##  9 Italy          47666000 58147733     10481733     22.0  
## 10 Portugal        8526050 10642836      2116786     24.8  
## # ... with 132 more rows
```
…
